{
  "teams": [
    {
      "name": "k8s SRE",
      "scheduling_timezone": "Europe/Moscow",
      "email": "k8s@sre-course.ru",
      "slack_channel": "#k8s-team",
      "admin_name": "o.ivanov"
    },
    {
      "name": "DBA SRE",
      "scheduling_timezone": "Asia/Novosibirsk",
      "email": "dba@sre-course.ru",
      "slack_channel": "#dba-team",
      "admin_name": "a.seledkov"
    }
  ]
}